{
  "services": [
    {
      "id": 5,
      "name": "Zondagochtend",
      "time": "10:00"
    }
  ],
  "series": [
    {
      "id": 5,
      "name": "none",
      "page_id": 0
    },
    {
      "id": 4,
      "name": "Jezus is...100% God",
      "page_id": 0
    },
    {
      "id": 3,
      "name": "Jezus IS...100% mens",
      "page_id": 0
    },
    {
      "id": 6,
      "name": "mercy",
      "page_id": "love and grace"
    }
  ],
  "preachers": [
    {
      "id": 8,
      "name": "Gerard de Groot",
      "description": "",
      "image": ""
    },
    {
      "id": 7,
      "name": "Ruben De Jong",
      "description": "",
      "image": ""
    },
    {
      "id": 3,
      "name": "Daniel Renger",
      "description": "",
      "image": ""
    },
    {
      "id": 4,
      "name": "Willem Plaizier",
      "description": "",
      "image": ""
    },
    {
      "id": 5,
      "name": "Martin Koornstra",
      "description": "",
      "image": ""
    },
    {
      "id": 6,
      "name": "Daniel Pasterkamp",
      "description": "",
      "image": ""
    },
    {
      "id": 9,
      "name": "Ed van Setten",
      "description": "",
      "image": ""
    },
    {
      "id": 10,
      "name": "Remco de Zwart",
      "description": "",
      "image": ""
    },
    {
      "id": 11,
      "name": "David de Vos",
      "description": "",
      "image": ""
    },
    {
      "id": 12,
      "name": "Petra van Weerden",
      "description": "",
      "image": ""
    },
    {
      "id": 13,
      "name": "Jan Sjoerd Pasterkamp",
      "description": "",
      "image": ""
    },
    {
      "id": 14,
      "name": "Edgar Holder",
      "description": "",
      "image": ""
    },
    {
      "id": 15,
      "name": "Hugo van Leemputten",
      "description": "",
      "image": ""
    },
    {
      "id": 16,
      "name": "Steve van Deventer",
      "description": "",
      "image": ""
    },
    {
      "id": 17,
      "name": "Vanessa Steffens",
      "description": "",
      "image": ""
    },
    {
      "id": 18,
      "name": "Jan Pool",
      "description": "",
      "image": ""
    },
    {
      "id": 19,
      "name": "Kent Linneweh",
      "description": "",
      "image": ""
    },
    {
      "id": 20,
      "name": "Tanja van Schuylenburg",
      "description": "",
      "image": ""
    },
    {
      "id": 21,
      "name": "Willy van Iersel",
      "description": "",
      "image": ""
    },
    {
      "id": 22,
      "name": "Iwan Sahertian",
      "description": "",
      "image": ""
    },
    {
      "id": 23,
      "name": "Stuart Robinson",
      "description": "",
      "image": ""
    },
    {
      "id": 24,
      "name": "Astrid Feddes",
      "description": "",
      "image": ""
    },
    {
      "id": 25,
      "name": "Bruce Hills",
      "description": "",
      "image": ""
    },
    {
      "id": 26,
      "name": "Wim Kok",
      "description": "",
      "image": ""
    }
  ],
  "sermons": [
    {
      "id": 1,
      "title": "Jezus is...de auteur van de grondwet van Gods Koninkrijk",
      "preacher_id": 3,
      "datetime": "2015-12-06 10:00:00",
      "service_id": 5,
      "series_id": 3,
      "start": "a:0:{}",
      "end": "a:0:{}",
      "description": "",
      "time": "",
      "override": 0,
      "page_id": 0
    },
    {
      "id": 2,
      "title": "Laat Uw koninkrijk komen",
      "preacher_id": 4,
      "datetime": "2015-11-29 10:00:00",
      "service_id": 5,
      "series_id": 3,
      "start": "a:0:{}",
      "end": "a:0:{}",
      "description": "",
      "time": "",
      "override": 0,
      "page_id": 0
    },
    {
      "id": 3,
      "title": "Jezus groeide in gunst van God en van mensen! En jij?",
      "preacher_id": 3,
      "datetime": "2015-11-15 10:00:00",
      "service_id": 5,
      "series_id": 3,
      "start": "a:0:{}",
      "end": "a:0:{}",
      "description": "",
      "time": "",
      "override": 0,
      "page_id": 0
    },
    {
      "id": 4,
      "title": "Blijf staan in de storm",
      "preacher_id": 5,
      "datetime": "2015-11-08 10:00:00",
      "service_id": 5,
      "series_id": 3,
      "start": "a:0:{}",
      "end": "a:0:{}",
      "description": "",
      "time": "",
      "override": 0,
      "page_id": 0
    },
    {
      "id": 5,
      "title": "Jezus...is vrede",
      "preacher_id": 6,
      "datetime": "2015-11-01 10:00:00",
      "service_id": 5,
      "series_id": 3,
      "start": "a:0:{}",
      "end": "a:0:{}",
      "description": "",
      "time": "",
      "override": 0,
      "page_id": 0
    },
    {
      "id": 6,
      "title": "Sleutels om Gods stem te verstaan",
      "preacher_id": 3,
      "datetime": "2015-10-25 10:00:00",
      "service_id": 5,
      "series_id": 3,
      "start": "a:0:{}",
      "end": "a:0:{}",
      "description": "",
      "time": "",
      "override": 0,
      "page_id": 0
    },
    {
      "id": 7,
      "title": "Jezus deelt Zijn geheimen",
      "preacher_id": 7,
      "datetime": "2015-10-18 10:00:00",
      "service_id": 5,
      "series_id": 3,
      "start": "a:0:{}",
      "end": "a:0:{}",
      "description": "",
      "time": "",
      "override": 0,
      "page_id": 0
    },
    {
      "id": 8,
      "title": "Jezus is...de vreemdeling",
      "preacher_id": 3,
      "datetime": "2015-10-11 10:00:00",
      "service_id": 5,
      "series_id": 3,
      "start": "a:0:{}",
      "end": "a:0:{}",
      "description": "",
      "time": "",
      "override": 0,
      "page_id": 0
    },
    {
      "id": 9,
      "title": "Jezus is...geen timmerman, maar een huizenbouwer",
      "preacher_id": 6,
      "datetime": 6,
      "service_id": "2015-10-04 10:00:00",
      "series_id": 5,
      "start": 3,
      "end": "a:0:{}",
      "description": "a:0:{}",
      "time": "",
      "override": "",
      "page_id": 0
    },
    {
      "id": 10,
      "title": "Jezus is...de bouwer van Zijn gemeente",
      "preacher_id": 3,
      "datetime": "2015-09-06 10:00:00",
      "service_id": 5,
      "series_id": 3,
      "start": "a:0:{}",
      "end": "a:0:{}",
      "description": "",
      "time": "",
      "override": 0,
      "page_id": 0
    },
    {
      "id": 11,
      "title": "Jezus is...100% mens",
      "preacher_id": 4,
      "datetime": "2015-09-20 10:00:00",
      "service_id": 5,
      "series_id": 3,
      "start": "a:0:{}",
      "end": "a:0:{}",
      "description": "",
      "time": "",
      "override": 0,
      "page_id": 0
    },
    {
      "id": 12,
      "title": "Jezus is...wedergeboorte",
      "preacher_id": 6,
      "datetime": "2015-09-27 10:00:00",
      "service_id": 5,
      "series_id": 3,
      "start": "a:0:{}",
      "end": "a:0:{}",
      "description": "",
      "time": "",
      "override": 0,
      "page_id": 0
    },
    {
      "id": 13,
      "title": "Jezus is...Ik ben",
      "preacher_id": 3,
      "datetime": "2015-09-13 10:00:00",
      "service_id": 5,
      "series_id": 3,
      "start": "a:0:{}",
      "end": "a:0:{}",
      "description": "",
      "time": "",
      "override": 0,
      "page_id": 0
    },
    {
      "id": 14,
      "title": "Jezus is...gewichtloos",
      "preacher_id": 6,
      "datetime": "2015-12-13 10:00:00",
      "service_id": 5,
      "series_id": 3,
      "start": "a:0:{}",
      "end": "a:0:{}",
      "description": "",
      "time": "",
      "override": 0,
      "page_id": 0
    },
    {
      "id": 15,
      "title": "Dankbaarheid, de taal van kinderen van Gods Koninkrijk",
      "preacher_id": 3,
      "datetime": 3,
      "service_id": "2015-12-27 10:00:00",
      "series_id": 5,
      "start": 3,
      "end": "a:0:{}",
      "description": "a:0:{}",
      "time": "",
      "override": "",
      "page_id": 0
    },
    {
      "id": 16,
      "title": "Jezus is...op zoek naar gastvrijheid",
      "preacher_id": 6,
      "datetime": "2016-01-03 10:00:00",
      "service_id": 5,
      "series_id": 3,
      "start": "a:0:{}",
      "end": "a:0:{}",
      "description": "",
      "time": "",
      "override": 0,
      "page_id": 0
    },
    {
      "id": 17,
      "title": "Ontvang je hemelse upgrade",
      "preacher_id": 8,
      "datetime": "2016-01-10 10:00:00",
      "service_id": 5,
      "series_id": 4,
      "start": "a:0:{}",
      "end": "a:0:{}",
      "description": "",
      "time": "",
      "override": 0,
      "page_id": 0
    },
    {
      "id": 21,
      "title": "Wie is de Vader van jouw leven?",
      "preacher_id": 9,
      "datetime": "2016-01-24 10:00:00",
      "service_id": 5,
      "series_id": 4,
      "start": "a:0:{}",
      "end": "a:0:{}",
      "description": "",
      "time": "",
      "override": 0,
      "page_id": 0
    },
    {
      "id": 20,
      "title": "Jezus is...de opstanding",
      "preacher_id": 10,
      "datetime": "2016-01-31 10:00:00",
      "service_id": 5,
      "series_id": 4,
      "start": "a:0:{}",
      "end": "a:0:{}",
      "description": "",
      "time": "",
      "override": 0,
      "page_id": 0
    },
    {
      "id": 22,
      "title": "Jezus, wie is Hij toch?",
      "preacher_id": 4,
      "datetime": 4,
      "service_id": "2016-02-07 10:00:00",
      "series_id": 5,
      "start": 4,
      "end": "a:0:{}",
      "description": "a:0:{}",
      "time": "",
      "override": "",
      "page_id": 0
    },
    {
      "id": 23,
      "title": "Maak je plannen vol geloof bekend aan God",
      "preacher_id": 11,
      "datetime": "2016-02-14 10:00:00",
      "service_id": 5,
      "series_id": 4,
      "start": "a:0:{}",
      "end": "a:0:{}",
      "description": "",
      "time": "",
      "override": 0,
      "page_id": 0
    },
    {
      "id": 24,
      "title": "‘Ben jij ook overtuigd? Van kennis naar overtuiging dat Jezus de waarheid is’.",
      "preacher_id": 12,
      "datetime": "2016-02-21 10:00:00",
      "service_id": 5,
      "series_id": 5,
      "start": "a:0:{}",
      "end": "a:0:{}",
      "description": "",
      "time": "",
      "override": 0,
      "page_id": 0
    },
    {
      "id": 25,
      "title": "Jezus is Koning van het ondersteboven Koninkrijk",
      "preacher_id": 3,
      "datetime": "2016-02-28 10:00:00",
      "service_id": 5,
      "series_id": 4,
      "start": "a:0:{}",
      "end": "a:0:{}",
      "description": "",
      "time": "",
      "override": 0,
      "page_id": 0
    },
    {
      "id": 26,
      "title": "De kracht van goede keuzes",
      "preacher_id": 13,
      "datetime": "2016-03-06 10:00:00",
      "service_id": 5,
      "series_id": 4,
      "start": "a:0:{}",
      "end": "a:0:{}",
      "description": "",
      "time": "",
      "override": 0,
      "page_id": 0
    },
    {
      "id": 27,
      "title": "Geroepen tot Gods volheid",
      "preacher_id": 14,
      "datetime": "2016-03-13 10:00:00",
      "service_id": 5,
      "series_id": 4,
      "start": "a:0:{}",
      "end": "a:0:{}",
      "description": "",
      "time": "",
      "override": 0,
      "page_id": 0
    },
    {
      "id": 33,
      "title": "Dwaas of reddende kracht?",
      "preacher_id": 7,
      "datetime": "2016-03-27 10:00:00",
      "service_id": 5,
      "series_id": 4,
      "start": "a:0:{}",
      "end": "a:0:{}",
      "description": "",
      "time": "",
      "override": 0,
      "page_id": 0
    },
    {
      "id": 34,
      "title": "Hart voor het Huis: Jezus is op zoek naar 1",
      "preacher_id": 6,
      "datetime": "2016-04-03 10:00:00",
      "service_id": 5,
      "series_id": 4,
      "start": "a:0:{}",
      "end": "a:0:{}",
      "description": "",
      "time": "",
      "override": 0,
      "page_id": 0
    },
    {
      "id": 32,
      "title": "Brandhout:Vaders grondstof voor een doorbraak",
      "preacher_id": 15,
      "datetime": "2016-03-20 10:00:00",
      "service_id": 5,
      "series_id": 4,
      "start": "a:0:{}",
      "end": "a:0:{}",
      "description": "",
      "time": "",
      "override": 0,
      "page_id": 0
    },
    {
      "id": 35,
      "title": "Geloof als taal van het nieuwe leven",
      "preacher_id": 3,
      "datetime": "2016-04-10 10:00:00",
      "service_id": 5,
      "series_id": 4,
      "start": "a:0:{}",
      "end": "a:0:{}",
      "description": "",
      "time": "",
      "override": 0,
      "page_id": 0
    },
    {
      "id": 36,
      "title": "Making the Impossible Possible",
      "preacher_id": 16,
      "datetime": "2016-04-17 10:00:00",
      "service_id": 5,
      "series_id": 4,
      "start": "a:0:{}",
      "end": "a:0:{}",
      "description": "",
      "time": "",
      "override": 0,
      "page_id": 0
    },
    {
      "id": 37,
      "title": "Jezus is...broodnodig",
      "preacher_id": 6,
      "datetime": "2016-04-24 10:00:00",
      "service_id": 5,
      "series_id": 4,
      "start": "a:0:{}",
      "end": "a:0:{}",
      "description": "",
      "time": "",
      "override": 0,
      "page_id": 0
    },
    {
      "id": 38,
      "title": "Jezus leeft relatie",
      "preacher_id": 7,
      "datetime": "2016-05-01 10:00:00",
      "service_id": 5,
      "series_id": 4,
      "start": "a:0:{}",
      "end": "a:0:{}",
      "description": "",
      "time": "",
      "override": 0,
      "page_id": 0
    },
    {
      "id": 39,
      "title": "De Heere is mijn Herder",
      "preacher_id": 17,
      "datetime": "2016-05-08 10:00:00",
      "service_id": 5,
      "series_id": 4,
      "start": "a:0:{}",
      "end": "a:0:{}",
      "description": "",
      "time": "",
      "override": 0,
      "page_id": 0
    },
    {
      "id": 40,
      "title": "De  doop in de Heilige Geest",
      "preacher_id": 6,
      "datetime": "2016-05-15 10:00:00",
      "service_id": 5,
      "series_id": 4,
      "start": "a:0:{}",
      "end": "a:0:{}",
      "description": "",
      "time": "",
      "override": 0,
      "page_id": 0
    },
    {
      "id": 41,
      "title": "Gezond Gezin Zijn",
      "preacher_id": 3,
      "datetime": "2016-05-22 10:00:00",
      "service_id": 5,
      "series_id": 4,
      "start": "a:0:{}",
      "end": "a:0:{}",
      "description": "",
      "time": "",
      "override": 0,
      "page_id": 0
    },
    {
      "id": 45,
      "title": "Intimiteit met God",
      "preacher_id": 18,
      "datetime": "2016-05-29 10:00:00",
      "service_id": 5,
      "series_id": 4,
      "start": "a:0:{}",
      "end": "a:0:{}",
      "description": "",
      "time": "",
      "override": 0,
      "page_id": 0
    },
    {
      "id": 43,
      "title": "Jezus is..Het Koninkrijk Nabij",
      "preacher_id": 6,
      "datetime": "2016-06-05 10:00:00",
      "service_id": 5,
      "series_id": 4,
      "start": "a:0:{}",
      "end": "a:0:{}",
      "description": "",
      "time": "",
      "override": 0,
      "page_id": 0
    },
    {
      "id": 46,
      "title": "Intimiteit met God",
      "preacher_id": 18,
      "datetime": "1970-01-01 00:00:00",
      "service_id": 5,
      "series_id": 4,
      "start": "a:0:{}",
      "end": "a:0:{}",
      "description": "",
      "time": "",
      "override": 0,
      "page_id": 0
    },
    {
      "id": 47,
      "title": "geef nooit op",
      "preacher_id": 3,
      "datetime": "2016-06-12 10:00:00",
      "service_id": 5,
      "series_id": 4,
      "start": "a:0:{}",
      "end": "a:0:{}",
      "description": "",
      "time": "",
      "override": 0,
      "page_id": 0
    },
    {
      "id": 48,
      "title": "",
      "preacher_id": 6,
      "datetime": "2016-06-19 10:00:00",
      "service_id": 5,
      "series_id": 4,
      "start": "a:0:{}",
      "end": "a:0:{}",
      "description": "",
      "time": "",
      "override": 0,
      "page_id": 0
    },
    {
      "id": 49,
      "title": "",
      "preacher_id": 5,
      "datetime": "2016-06-26 10:00:00",
      "service_id": 5,
      "series_id": 4,
      "start": "a:0:{}",
      "end": "a:0:{}",
      "description": "",
      "time": "",
      "override": 0,
      "page_id": 0
    },
    {
      "id": 50,
      "title": "de 14 dagen \\\\\\\"speak-life\\\\\\\" challenge",
      "preacher_id": 19,
      "datetime": "2016-07-10 10:00:00",
      "service_id": 5,
      "series_id": 4,
      "start": "a:0:{}",
      "end": "a:0:{}",
      "description": "",
      "time": "",
      "override": 0,
      "page_id": 0
    },
    {
      "id": 51,
      "title": "overdrachtsdienst daniel",
      "preacher_id": 3,
      "datetime": "2016-07-03 10:00:00",
      "service_id": 5,
      "series_id": 4,
      "start": "a:0:{}",
      "end": "a:0:{}",
      "description": "",
      "time": "",
      "override": 0,
      "page_id": 0
    },
    {
      "id": 52,
      "title": "hart van God \\\\\\\"gerechtigheid\\\\\\",
      "preacher_id": 20,
      "datetime": "2016-07-17 10:00:00",
      "service_id": 5,
      "series_id": 4,
      "start": "a:0:{}",
      "end": "a:0:{}",
      "description": "",
      "time": "",
      "override": 0,
      "page_id": 0
    },
    {
      "id": 53,
      "title": "14 days challenge part 2",
      "preacher_id": 19,
      "datetime": "2016-07-24 10:00:00",
      "service_id": 5,
      "series_id": 4,
      "start": "a:0:{}",
      "end": "a:0:{}",
      "description": "",
      "time": "",
      "override": 0,
      "page_id": 0
    },
    {
      "id": 54,
      "title": "het evangelie",
      "preacher_id": 9,
      "datetime": "2016-07-31 10:00:00",
      "service_id": 5,
      "series_id": 4,
      "start": "a:0:{}",
      "end": "a:0:{}",
      "description": "",
      "time": "",
      "override": 0,
      "page_id": 0
    },
    {
      "id": 55,
      "title": "de schuilplaats",
      "preacher_id": 21,
      "datetime": "2016-08-07 10:00:00",
      "service_id": 5,
      "series_id": 4,
      "start": "a:0:{}",
      "end": "a:0:{}",
      "description": "",
      "time": "",
      "override": 0,
      "page_id": 0
    },
    {
      "id": 56,
      "title": "Ontmoeting met God",
      "preacher_id": 7,
      "datetime": "2016-08-14 10:00:00",
      "service_id": 5,
      "series_id": 4,
      "start": "a:0:{}",
      "end": "a:0:{}",
      "description": "",
      "time": "",
      "override": 0,
      "page_id": 0
    },
    {
      "id": 57,
      "title": "but God remembered",
      "preacher_id": 19,
      "datetime": "2016-08-21 10:00:00",
      "service_id": 5,
      "series_id": 4,
      "start": "a:0:{}",
      "end": "a:0:{}",
      "description": "",
      "time": "",
      "override": 0,
      "page_id": 0
    },
    {
      "id": 58,
      "title": "God heeft ons uitgekozen",
      "preacher_id": 6,
      "datetime": "2016-08-28 10:00:00",
      "service_id": 5,
      "series_id": 4,
      "start": "a:0:{}",
      "end": "a:0:{}",
      "description": "",
      "time": "",
      "override": 0,
      "page_id": 0
    },
    {
      "id": 59,
      "title": "Mercy-Love and Grace",
      "preacher_id": 6,
      "datetime": "2016-09-04 10:00:00",
      "service_id": 5,
      "series_id": 4,
      "start": "a:0:{}",
      "end": "a:0:{}",
      "description": "",
      "time": "",
      "override": 0,
      "page_id": 0
    },
    {
      "id": 60,
      "title": "Visie zondag",
      "preacher_id": 6,
      "datetime": "2016-09-11 10:00:00",
      "service_id": 5,
      "series_id": 4,
      "start": "a:0:{}",
      "end": "a:0:{}",
      "description": "",
      "time": "",
      "override": 0,
      "page_id": 0
    },
    {
      "id": 61,
      "title": "wat is in jouw hand ?",
      "preacher_id": 6,
      "datetime": "2016-09-18 10:00:00",
      "service_id": 5,
      "series_id": 4,
      "start": "a:0:{}",
      "end": "a:0:{}",
      "description": "",
      "time": "",
      "override": 0,
      "page_id": 0
    },
    {
      "id": 62,
      "title": "Aanbidding is...",
      "preacher_id": 22,
      "datetime": "2016-09-25 10:00:00",
      "service_id": 5,
      "series_id": 6,
      "start": "a:0:{}",
      "end": "a:0:{}",
      "description": "",
      "time": "",
      "override": 0,
      "page_id": 0
    },
    {
      "id": 63,
      "title": "Gebed",
      "preacher_id": 6,
      "datetime": "2016-10-02 10:00:00",
      "service_id": 5,
      "series_id": 6,
      "start": "a:0:{}",
      "end": "a:0:{}",
      "description": "",
      "time": "",
      "override": 0,
      "page_id": 0
    },
    {
      "id": 64,
      "title": "knock knock who\\\\\\s there",
      "preacher_id": 19,
      "datetime": "2016-10-09 10:00:00",
      "service_id": 5,
      "series_id": 6,
      "start": "a:0:{}",
      "end": "a:0:{}",
      "description": "",
      "time": "",
      "override": 0,
      "page_id": 0
    },
    {
      "id": 65,
      "title": "pasgeborene",
      "preacher_id": 6,
      "datetime": "2016-10-16 10:00:00",
      "service_id": 5,
      "series_id": 6,
      "start": "a:0:{}",
      "end": "a:0:{}",
      "description": "",
      "time": "",
      "override": 0,
      "page_id": 0
    },
    {
      "id": 66,
      "title": "de beloofde hand",
      "preacher_id": 7,
      "datetime": "2016-10-23 10:00:00",
      "service_id": 5,
      "series_id": 6,
      "start": "a:0:{}",
      "end": "a:0:{}",
      "description": "",
      "time": "",
      "override": 0,
      "page_id": 0
    },
    {
      "id": 67,
      "title": "De tegenwoordigheid van God binnen gaan",
      "preacher_id": 6,
      "datetime": "2016-10-30 10:00:00",
      "service_id": 5,
      "series_id": 6,
      "start": "a:0:{}",
      "end": "a:0:{}",
      "description": "",
      "time": "",
      "override": 0,
      "page_id": 0
    },
    {
      "id": 68,
      "title": "David & Goliath day 41",
      "preacher_id": 23,
      "datetime": "2016-11-06 10:00:00",
      "service_id": 5,
      "series_id": 6,
      "start": "a:0:{}",
      "end": "a:0:{}",
      "description": "",
      "time": "",
      "override": 0,
      "page_id": 0
    },
    {
      "id": 69,
      "title": "barmhartigheid en liefde van God",
      "preacher_id": 6,
      "datetime": "2016-11-13 10:00:00",
      "service_id": 5,
      "series_id": 6,
      "start": "a:0:{}",
      "end": "a:0:{}",
      "description": "",
      "time": "",
      "override": 0,
      "page_id": 0
    },
    {
      "id": 70,
      "title": "dealen met tegenslagen en blijven kijken op Jezus",
      "preacher_id": 5,
      "datetime": "2016-11-20 10:00:00",
      "service_id": 5,
      "series_id": 6,
      "start": "a:0:{}",
      "end": "a:0:{}",
      "description": "",
      "time": "",
      "override": 0,
      "page_id": 0
    },
    {
      "id": 71,
      "title": "Benjamin",
      "preacher_id": 7,
      "datetime": "2016-11-27 10:00:00",
      "service_id": 5,
      "series_id": 6,
      "start": "a:0:{}",
      "end": "a:0:{}",
      "description": "",
      "time": "",
      "override": 0,
      "page_id": 0
    },
    {
      "id": 72,
      "title": "familie zijn",
      "preacher_id": 6,
      "datetime": "2016-12-04 10:00:00",
      "service_id": 5,
      "series_id": 6,
      "start": "a:0:{}",
      "end": "a:0:{}",
      "description": "",
      "time": "",
      "override": 0,
      "page_id": 0
    },
    {
      "id": 73,
      "title": "compassion",
      "preacher_id": 10,
      "datetime": "2016-12-11 10:00:00",
      "service_id": 5,
      "series_id": 6,
      "start": "a:0:{}",
      "end": "a:0:{}",
      "description": "",
      "time": "",
      "override": 0,
      "page_id": 0
    },
    {
      "id": 74,
      "title": "Gerechtigheid",
      "preacher_id": 6,
      "datetime": "2016-12-18 10:00:00",
      "service_id": 5,
      "series_id": 6,
      "start": "a:0:{}",
      "end": "a:0:{}",
      "description": "",
      "time": "",
      "override": 0,
      "page_id": 0
    },
    {
      "id": 75,
      "title": "God wil jouw kennen",
      "preacher_id": 6,
      "datetime": "2016-12-25 10:00:00",
      "service_id": 5,
      "series_id": 6,
      "start": "a:0:{}",
      "end": "a:0:{}",
      "description": "",
      "time": "",
      "override": 0,
      "page_id": 0
    },
    {
      "id": 76,
      "title": "vergeving",
      "preacher_id": 24,
      "datetime": "2017-01-08 10:00:00",
      "service_id": 5,
      "series_id": 6,
      "start": "a:0:{}",
      "end": "a:0:{}",
      "description": "",
      "time": "",
      "override": 0,
      "page_id": 0
    },
    {
      "id": 77,
      "title": "Gods plan voor komend jaar",
      "preacher_id": 6,
      "datetime": "2017-01-01 10:00:00",
      "service_id": 5,
      "series_id": 6,
      "start": "a:0:{}",
      "end": "a:0:{}",
      "description": "",
      "time": "",
      "override": 0,
      "page_id": 0
    },
    {
      "id": 78,
      "title": "God\\\\\\s new thing",
      "preacher_id": 25,
      "datetime": "2017-01-15 10:00:00",
      "service_id": 5,
      "series_id": 6,
      "start": "a:0:{}",
      "end": "a:0:{}",
      "description": "",
      "time": "",
      "override": 0,
      "page_id": 0
    },
    {
      "id": 79,
      "title": "De doop en wat het betekend",
      "preacher_id": 6,
      "datetime": "2017-01-22 10:00:00",
      "service_id": 5,
      "series_id": 6,
      "start": "a:0:{}",
      "end": "a:0:{}",
      "description": "",
      "time": "",
      "override": 0,
      "page_id": 0
    },
    {
      "id": 80,
      "title": "vergeving",
      "preacher_id": 3,
      "datetime": "2017-01-29 10:00:00",
      "service_id": 5,
      "series_id": 6,
      "start": "a:0:{}",
      "end": "a:0:{}",
      "description": "",
      "time": "",
      "override": 0,
      "page_id": 0
    },
    {
      "id": 81,
      "title": "de kracht van vergeving",
      "preacher_id": 6,
      "datetime": "2017-02-05 10:00:00",
      "service_id": 5,
      "series_id": 6,
      "start": "a:0:{}",
      "end": "a:0:{}",
      "description": "",
      "time": "",
      "override": 0,
      "page_id": 0
    },
    {
      "id": 82,
      "title": "het geven van je financiën",
      "preacher_id": 8,
      "datetime": "2017-02-12 10:00:00",
      "service_id": 5,
      "series_id": 6,
      "start": "a:0:{}",
      "end": "a:0:{}",
      "description": "",
      "time": "",
      "override": 0,
      "page_id": 0
    },
    {
      "id": 83,
      "title": "zegen door financiën",
      "preacher_id": 6,
      "datetime": "2017-02-19 10:00:00",
      "service_id": 5,
      "series_id": 6,
      "start": "a:0:{}",
      "end": "a:0:{}",
      "description": "",
      "time": "",
      "override": 0,
      "page_id": 0
    },
    {
      "id": 84,
      "title": "Liefde",
      "preacher_id": 7,
      "datetime": "2017-02-26 10:00:00",
      "service_id": 5,
      "series_id": 6,
      "start": "a:0:{}",
      "end": "a:0:{}",
      "description": "",
      "time": "",
      "override": 0,
      "page_id": 0
    },
    {
      "id": 85,
      "title": "waarheid en genade zijn gekomen door Jezus",
      "preacher_id": 6,
      "datetime": "2017-03-05 10:00:00",
      "service_id": 5,
      "series_id": 6,
      "start": "a:0:{}",
      "end": "a:0:{}",
      "description": "",
      "time": "",
      "override": 0,
      "page_id": 0
    },
    {
      "id": 86,
      "title": "Trouw aan God\\\\\\s liefde",
      "preacher_id": 6,
      "datetime": "2017-03-12 10:00:00",
      "service_id": 5,
      "series_id": 6,
      "start": "a:0:{}",
      "end": "a:0:{}",
      "description": "",
      "time": "",
      "override": 0,
      "page_id": 0
    },
    {
      "id": 87,
      "title": "Family by design",
      "preacher_id": 19,
      "datetime": "2017-03-19 10:00:00",
      "service_id": 5,
      "series_id": 6,
      "start": "a:0:{}",
      "end": "a:0:{}",
      "description": "",
      "time": "",
      "override": 0,
      "page_id": 0
    },
    {
      "id": 88,
      "title": "Vijf diamanten",
      "preacher_id": 3,
      "datetime": "2017-03-26 10:00:00",
      "service_id": 5,
      "series_id": 6,
      "start": "a:0:{}",
      "end": "a:0:{}",
      "description": "",
      "time": "",
      "override": 0,
      "page_id": 0
    },
    {
      "id": 89,
      "title": "Familie zijn",
      "preacher_id": 6,
      "datetime": "2017-04-02 10:00:00",
      "service_id": 5,
      "series_id": 6,
      "start": "a:0:{}",
      "end": "a:0:{}",
      "description": "",
      "time": "",
      "override": 0,
      "page_id": 0
    },
    {
      "id": 90,
      "title": "De doop als demonstratie",
      "preacher_id": 7,
      "datetime": "2017-04-09 10:00:00",
      "service_id": 5,
      "series_id": 6,
      "start": "a:0:{}",
      "end": "a:0:{}",
      "description": "",
      "time": "",
      "override": 0,
      "page_id": 0
    },
    {
      "id": 91,
      "title": "omdat Jezus is opgestaan",
      "preacher_id": 6,
      "datetime": "2017-04-16 10:00:00",
      "service_id": 5,
      "series_id": 6,
      "start": "a:0:{}",
      "end": "a:0:{}",
      "description": "",
      "time": "",
      "override": 0,
      "page_id": 0
    },
    {
      "id": 92,
      "title": "Genade",
      "preacher_id": 13,
      "datetime": "2017-04-23 10:00:00",
      "service_id": 5,
      "series_id": 6,
      "start": "a:0:{}",
      "end": "a:0:{}",
      "description": "",
      "time": "",
      "override": 0,
      "page_id": 0
    },
    {
      "id": 93,
      "title": "Profetie",
      "preacher_id": 26,
      "datetime": "2017-04-30 10:00:00",
      "service_id": 5,
      "series_id": 6,
      "start": "a:0:{}",
      "end": "a:0:{}",
      "description": "",
      "time": "",
      "override": 0,
      "page_id": 0
    },
    {
      "id": 94,
      "title": "Wat is genade",
      "preacher_id": 6,
      "datetime": "2017-05-07 10:00:00",
      "service_id": 5,
      "series_id": 6,
      "start": "a:0:{}",
      "end": "a:0:{}",
      "description": "",
      "time": "",
      "override": 0,
      "page_id": 0
    },
    {
      "id": 95,
      "title": "Moederdag",
      "preacher_id": 11,
      "datetime": "2017-05-14 10:00:00",
      "service_id": 5,
      "series_id": 6,
      "start": "a:0:{}",
      "end": "a:0:{}",
      "description": "",
      "time": "",
      "override": 0,
      "page_id": 0
    },
    {
      "id": 96,
      "title": "Wat is genade deel 2",
      "preacher_id": 6,
      "datetime": "2017-05-21 10:00:00",
      "service_id": 5,
      "series_id": 6,
      "start": "a:0:{}",
      "end": "a:0:{}",
      "description": "",
      "time": "",
      "override": 0,
      "page_id": 0
    },
    {
      "id": 97,
      "title": "Wat is mijn indentiteit",
      "preacher_id": 18,
      "datetime": "2017-05-28 10:00:00",
      "service_id": 5,
      "series_id": 6,
      "start": "a:0:{}",
      "end": "a:0:{}",
      "description": "",
      "time": "",
      "override": 0,
      "page_id": 0
    },
    {
      "id": 98,
      "title": "de geest van genade uigestort met pinkesteren",
      "preacher_id": 6,
      "datetime": "2017-06-04 10:00:00",
      "service_id": 5,
      "series_id": 6,
      "start": "a:0:{}",
      "end": "a:0:{}",
      "description": "",
      "time": "",
      "override": 0,
      "page_id": 0
    },
    {
      "id": 99,
      "title": "Hemelse kracht die doorbreekt op aarde!",
      "preacher_id": 5,
      "datetime": "2017-06-11 10:00:00",
      "service_id": 5,
      "series_id": 6,
      "start": "a:0:{}",
      "end": "a:0:{}",
      "description": "",
      "time": "",
      "override": 0,
      "page_id": 0
    },
    {
      "id": 100,
      "title": "Weerstand tegen verleiding",
      "preacher_id": 6,
      "datetime": "2017-06-18 10:00:00",
      "service_id": 5,
      "series_id": 6,
      "start": "a:0:{}",
      "end": "a:0:{}",
      "description": "",
      "time": "",
      "override": 0,
      "page_id": 0
    }
  ],
  "files": [
    {
      "id": 1,
      "type": "file",
      "name": "20151206Daniel Renger_Jezus is de auteur van de grondwet van Gods Koninkrijk.mp3",
      "sermon_id": 1,
      "count": 959,
      "duration": "51:58"
    },
    {
      "id": 2,
      "type": "file",
      "name": "20151129Willem Plaizier_Laat Uw koninkrijk komen.mp3",
      "sermon_id": 2,
      "count": 899,
      "duration": "37:08"
    },
    {
      "id": 3,
      "type": "file",
      "name": "20151115Daniel Renger_Jezus groeide in gunst van God en van mensen En jij.mp3",
      "sermon_id": 3,
      "count": 907,
      "duration": "43:56"
    },
    {
      "id": 4,
      "type": "file",
      "name": "20151108Martin Koornstra_Blijf staan in de storm.mp3",
      "sermon_id": 4,
      "count": 919,
      "duration": "34:02"
    },
    {
      "id": 5,
      "type": "file",
      "name": "20151101Daniel Pasterkamp_Jezus is vrede.mp3",
      "sermon_id": 5,
      "count": 626,
      "duration": "51:12"
    },
    {
      "id": 6,
      "type": "file",
      "name": "20151025Daniel Renger_Sleutels om Gods stem te verstaan.mp3",
      "sermon_id": 6,
      "count": 1180,
      "duration": "43:32"
    },
    {
      "id": 7,
      "type": "file",
      "name": "20151018Ruben de Jong.mp3",
      "sermon_id": 7,
      "count": 577,
      "duration": "48:09"
    },
    {
      "id": 8,
      "type": "file",
      "name": "20151011Daniel Renger_Jezus is de vreemdeling.mp3",
      "sermon_id": 8,
      "count": 541,
      "duration": "49:10"
    },
    {
      "id": 9,
      "type": "file",
      "name": "20151004Daniel Pasterkamp_Jezus is.mp3",
      "sermon_id": 9,
      "count": 492,
      "duration": "40:33"
    },
    {
      "id": 10,
      "type": "file",
      "name": "20150927Daniel Pasterkamp_JEZUS IS wedergeboorte.mp3",
      "sermon_id": 12,
      "count": 454,
      "duration": "39:00"
    },
    {
      "id": 11,
      "type": "file",
      "name": "20150920Willem Plaizier_Jezus 100% mens.mp3",
      "sermon_id": 11,
      "count": 451,
      "duration": "47:06"
    },
    {
      "id": 12,
      "type": "file",
      "name": "20150913Daniel Renger_Ik ben.mp3",
      "sermon_id": 13,
      "count": 433,
      "duration": "33:59"
    },
    {
      "id": 13,
      "type": "file",
      "name": "20150906Daniel Renger_Startzondag.mp3",
      "sermon_id": 10,
      "count": 373,
      "duration": "43:43"
    },
    {
      "id": 14,
      "type": "file",
      "name": "20151213Daniel Pasterkamp_Jezus is gewichtloos.mp3",
      "sermon_id": 14,
      "count": 959,
      "duration": "31:09"
    },
    {
      "id": 15,
      "type": "file",
      "name": "20151227Daniel Renger_Dankbaarheid, de taal van kinderen van Gods Koninkrijk.mp3",
      "sermon_id": 15,
      "count": 15,
      "duration": 1105
    },
    {
      "id": 16,
      "type": "file",
      "name": "20160103Daniel Pasterkamp_Jezus is op zoek naar gastvrijheid.mp3",
      "sermon_id": 16,
      "count": 1035,
      "duration": "24:06"
    },
    {
      "id": 17,
      "type": "file",
      "name": "20160110Gerard de Groot_Ontvang je hemelse upgrade.mp3",
      "sermon_id": 17,
      "count": 1142,
      "duration": "43:05"
    },
    {
      "id": 20,
      "type": "file",
      "name": "20160124Ed van Setten_Wie is de vader van jouw leven.mp3",
      "sermon_id": 21,
      "count": 820,
      "duration": "50:30"
    },
    {
      "id": 19,
      "type": "file",
      "name": "20160131Remco de Zwart_Jezus is de opstanding.mp3",
      "sermon_id": 20,
      "count": 955,
      "duration": "38:47"
    },
    {
      "id": 21,
      "type": "file",
      "name": "20160207Willem Plaizier_Jezus wie is hij toch.mp3",
      "sermon_id": 22,
      "count": 876,
      "duration": "35:27"
    },
    {
      "id": 22,
      "type": "file",
      "name": "20160214David de Vos_Maak je plannen vol geloof bekend aan God.mp3",
      "sermon_id": 23,
      "count": 1606,
      "duration": "49:31"
    },
    {
      "id": 23,
      "type": "file",
      "name": "preek petra.m4a",
      "sermon_id": 24,
      "count": 1226,
      "duration": 0
    },
    {
      "id": 24,
      "type": "file",
      "name": "preek daniel 28-2-2016.m4a",
      "sermon_id": 25,
      "count": 1297,
      "duration": 0
    },
    {
      "id": 25,
      "type": "file",
      "name": "preek jan sjoerd pasterkamp.m4a",
      "sermon_id": 26,
      "count": 5587,
      "duration": 0
    },
    {
      "id": 26,
      "type": "file",
      "name": "13-3-2016 preek edgar holder.m4a",
      "sermon_id": 27,
      "count": 1530,
      "duration": 0
    },
    {
      "id": 29,
      "type": "file",
      "name": "Audio Hugo-ECE-20-3-2016.mp3",
      "sermon_id": 32,
      "count": 896,
      "duration": "58:11"
    },
    {
      "id": 30,
      "type": "file",
      "name": "preek ruben de jong 27-3-2016.m4a",
      "sermon_id": 33,
      "count": 850,
      "duration": 0
    },
    {
      "id": 31,
      "type": "file",
      "name": "preek daniel pasterkamp 3-4-2016.m4a",
      "sermon_id": 34,
      "count": 61478,
      "duration": 0
    },
    {
      "id": 32,
      "type": "file",
      "name": "preek daniel renger 10-4-2016.m4a",
      "sermon_id": 35,
      "count": 914,
      "duration": 0
    },
    {
      "id": 33,
      "type": "file",
      "name": "preek Steve van Deventer 17-4-2016.m4a",
      "sermon_id": 36,
      "count": 1118,
      "duration": 0
    },
    {
      "id": 34,
      "type": "file",
      "name": "preek daniel pasterkamp 24-4-2016.m4a",
      "sermon_id": 37,
      "count": 983,
      "duration": 0
    },
    {
      "id": 35,
      "type": "file",
      "name": "preek Ruben de Jong 1-5-2016.m4a",
      "sermon_id": 38,
      "count": 1101,
      "duration": 0
    },
    {
      "id": 36,
      "type": "file",
      "name": "preek Vanessa Steffens 8-5-2016.m4a",
      "sermon_id": 39,
      "count": 62268,
      "duration": 0
    },
    {
      "id": 37,
      "type": "file",
      "name": "preek daniel pasterkamp zondag 15-5-2016.m4a",
      "sermon_id": 40,
      "count": 919,
      "duration": 0
    },
    {
      "id": 38,
      "type": "file",
      "name": "preek daniel renger zondag 22-5-2016.m4a",
      "sermon_id": 41,
      "count": 1186,
      "duration": 0
    },
    {
      "id": 39,
      "type": "file",
      "name": "preek Jan Pool zondag 29-5-2016.m4a",
      "sermon_id": 45,
      "count": 65762,
      "duration": 0
    },
    {
      "id": 40,
      "type": "file",
      "name": "preek daniel pasterkamp zondag 5-6-2016.m4a",
      "sermon_id": 42,
      "count": 40,
      "duration": 0
    },
    {
      "id": 41,
      "type": "file",
      "name": "preek daniel pasterkamp zondag 5-6-2016_1.m4a",
      "sermon_id": 43,
      "count": 637,
      "duration": 0
    },
    {
      "id": 42,
      "type": "file",
      "name": "Jan Pool zondag 29-5-2016.m4a",
      "sermon_id": 46,
      "count": 304,
      "duration": 0
    },
    {
      "id": 43,
      "type": "file",
      "name": "preek daniel renger zondag 12-6-2016.m4a",
      "sermon_id": 47,
      "count": 775,
      "duration": 0
    },
    {
      "id": 44,
      "type": "file",
      "name": "preek daniel pasterkamp 12-6-2016.m4a",
      "sermon_id": 0,
      "count": 0,
      "duration": 0
    },
    {
      "id": 45,
      "type": "file",
      "name": "preek daniel pasterkamp 19-6-2016.m4a",
      "sermon_id": 48,
      "count": 635,
      "duration": 0
    },
    {
      "id": 46,
      "type": "file",
      "name": "preek  zondag 26-6-2016 martin koornstra.m4a",
      "sermon_id": 49,
      "count": 884,
      "duration": 0
    },
    {
      "id": 47,
      "type": "file",
      "name": "preek 10-7-2016 Kent Linneweh -de 14 dagen  speaklife challenge.m4a",
      "sermon_id": 50,
      "count": 689,
      "duration": 0
    },
    {
      "id": 48,
      "type": "file",
      "name": "overdrachtsdienst 3-7-2016.m4a",
      "sermon_id": 51,
      "count": 601,
      "duration": 0
    },
    {
      "id": 49,
      "type": "file",
      "name": "preek 17-7-2016 Tanja schuylenburg hart van God gerechtigheid.m4a",
      "sermon_id": 52,
      "count": 564,
      "duration": 0
    },
    {
      "id": 50,
      "type": "file",
      "name": "preek 24-7-2016 kent linneweh 14 day challenge part 2.m4a",
      "sermon_id": 53,
      "count": 481,
      "duration": 0
    },
    {
      "id": 51,
      "type": "file",
      "name": "preek 31-7-2016 ed van setten het evangelie.m4a",
      "sermon_id": 54,
      "count": 521,
      "duration": 0
    },
    {
      "id": 52,
      "type": "file",
      "name": "preek 7-8-2016 willy van Iersel de schuilplaats.m4a",
      "sermon_id": 55,
      "count": 513,
      "duration": 0
    },
    {
      "id": 53,
      "type": "file",
      "name": "preek 14-8-2016 Ruben de Jong ontmoeting met God.m4a",
      "sermon_id": 56,
      "count": 488,
      "duration": 0
    },
    {
      "id": 54,
      "type": "file",
      "name": "preek 21-8-2016 Kent Linneweh but God remembered.m4a",
      "sermon_id": 57,
      "count": 452,
      "duration": 0
    },
    {
      "id": 55,
      "type": "file",
      "name": "preek 28-8-2016 daniel pasterkamp God heeft ons uitgekozen.m4a",
      "sermon_id": 58,
      "count": 488,
      "duration": 0
    },
    {
      "id": 56,
      "type": "file",
      "name": "preek 4-9-2016 daniel pasterkamp  Mercy-Love and Grace.m4a",
      "sermon_id": 59,
      "count": 477,
      "duration": 0
    },
    {
      "id": 57,
      "type": "file",
      "name": "preek 11-9-2016 daniel pasterkamp  Visie zondag.m4a",
      "sermon_id": 60,
      "count": 488,
      "duration": 0
    },
    {
      "id": 58,
      "type": "file",
      "name": "preek 18-9-2016 daniel pasterkamp  Wat is in jouw hand _.m4a",
      "sermon_id": 61,
      "count": 581,
      "duration": 0
    },
    {
      "id": 59,
      "type": "file",
      "name": "preek 25-9-2016 Iwan Sahertian  Aanbidding is....m4a",
      "sermon_id": 62,
      "count": 548,
      "duration": 0
    },
    {
      "id": 60,
      "type": "file",
      "name": "preek 2-10-2016 daniel pasterkamp  Gebed.m4a",
      "sermon_id": 63,
      "count": 443,
      "duration": 0
    },
    {
      "id": 61,
      "type": "file",
      "name": "preek 9-10-2016 kent linneweh knock knock whos there.m4a",
      "sermon_id": 64,
      "count": 402,
      "duration": 0
    },
    {
      "id": 62,
      "type": "file",
      "name": "preek 16-10-2016 daniel pasterkamp pasgeborene.m4a",
      "sermon_id": 65,
      "count": 435,
      "duration": 0
    },
    {
      "id": 63,
      "type": "file",
      "name": "preek 23-10-2016 Ruben de Jong de beloofde hand.m4a",
      "sermon_id": 66,
      "count": 376,
      "duration": 0
    },
    {
      "id": 64,
      "type": "file",
      "name": "preek 30-10-2016 Daniel pasterkamp  De tegenwoordigheid van God binnen gaan.m4a",
      "sermon_id": 67,
      "count": 444,
      "duration": 0
    },
    {
      "id": 65,
      "type": "file",
      "name": "preek 6-11-2016 David & Goliath day 41.m4a",
      "sermon_id": 68,
      "count": 444,
      "duration": 0
    },
    {
      "id": 66,
      "type": "file",
      "name": "preek 13-11-2016 daniel pastekamp barmhartigheid en liefde van God.m4a",
      "sermon_id": 69,
      "count": 260,
      "duration": 0
    },
    {
      "id": 67,
      "type": "file",
      "name": "preek 20-11-2016 martin koornstra dealen met tegenslagen en blijven kijken op Jezus.m4a",
      "sermon_id": 70,
      "count": 304,
      "duration": 0
    },
    {
      "id": 68,
      "type": "file",
      "name": "preek 27-11-2016 Ruben de Jong  Benjamin.m4a",
      "sermon_id": 71,
      "count": 287,
      "duration": 0
    },
    {
      "id": 69,
      "type": "file",
      "name": "preek 04-12-2016 daniel pasterkamp famile zijn.m4a",
      "sermon_id": 72,
      "count": 259,
      "duration": 0
    },
    {
      "id": 70,
      "type": "file",
      "name": "preek 11-12-2016 Rmeco de Zwart  Compassion.m4a",
      "sermon_id": 73,
      "count": 280,
      "duration": 0
    },
    {
      "id": 71,
      "type": "file",
      "name": "preek 18-12-2016 daniel Pasterkamp  gerechtigheid.m4a",
      "sermon_id": 74,
      "count": 282,
      "duration": 0
    },
    {
      "id": 72,
      "type": "file",
      "name": "preek 25-12-2016 daniel Pasterkamp  God wil jouw kennen.m4a",
      "sermon_id": 75,
      "count": 292,
      "duration": 0
    },
    {
      "id": 73,
      "type": "file",
      "name": "preek 8-1-2017 Astrid Feddes  Vergeving.m4a",
      "sermon_id": 76,
      "count": 342,
      "duration": 0
    },
    {
      "id": 74,
      "type": "file",
      "name": "preek 1-1-2017 daniel pasterkamp Gods plan voor komend jaar.m4a",
      "sermon_id": 77,
      "count": 297,
      "duration": 0
    },
    {
      "id": 75,
      "type": "file",
      "name": "preek 15-1-2017 Bruce Hills - God\\s new thing.m4a",
      "sermon_id": 78,
      "count": 356,
      "duration": 0
    },
    {
      "id": 76,
      "type": "file",
      "name": "preek 22-1-2017 Daniel Pasterkamp  De doop en wat het betekend.m4a",
      "sermon_id": 79,
      "count": 283,
      "duration": 0
    },
    {
      "id": 77,
      "type": "file",
      "name": "preek 29-1 -2017 Daniel Renger Vergeving.m4a",
      "sermon_id": 80,
      "count": 358,
      "duration": 0
    },
    {
      "id": 78,
      "type": "file",
      "name": "preek 5-2-2017 daniel pasterkamp de kracht van vergeving.m4a",
      "sermon_id": 81,
      "count": 336,
      "duration": 0
    },
    {
      "id": 79,
      "type": "file",
      "name": "preek 12-2-2017 Gerard de Groot het geven van financiën.m4a",
      "sermon_id": 82,
      "count": 309,
      "duration": 0
    },
    {
      "id": 80,
      "type": "file",
      "name": "preek 19-2-2017 daniel pasterkamp zegen door financien.m4a",
      "sermon_id": 83,
      "count": 248,
      "duration": 0
    },
    {
      "id": 81,
      "type": "file",
      "name": "preek 26-2-2017 Ruben de Jong  Liefde.m4a",
      "sermon_id": 84,
      "count": 209,
      "duration": 0
    },
    {
      "id": 82,
      "type": "file",
      "name": "preek 5-3-2017 Daniel Pasterkamp Waarheid en genade zijn gekomen door Jezus.m4a",
      "sermon_id": 85,
      "count": 158,
      "duration": 0
    },
    {
      "id": 83,
      "type": "file",
      "name": "preek 12-3-2017 Daniel Pasterkamp Trouw aan God\\s liefde.m4a",
      "sermon_id": 86,
      "count": 136,
      "duration": 0
    },
    {
      "id": 84,
      "type": "file",
      "name": "preek 19-3-2017 Kent Linneweh Family by design.m4a",
      "sermon_id": 87,
      "count": 145,
      "duration": 0
    },
    {
      "id": 85,
      "type": "file",
      "name": "preek 26-3-2017 Daniel Renger Vijf diamanten.m4a",
      "sermon_id": 88,
      "count": 221,
      "duration": 0
    },
    {
      "id": 86,
      "type": "file",
      "name": "preek 2-4-2017 daniel pasterkamp Familie zijn.m4a",
      "sermon_id": 89,
      "count": 135,
      "duration": 0
    },
    {
      "id": 87,
      "type": "file",
      "name": "preek 9-4-2017 Ruben de Jong De doop als demonstratie.m4a",
      "sermon_id": 90,
      "count": 96,
      "duration": 0
    },
    {
      "id": 88,
      "type": "file",
      "name": "preek 16-4-2017 daniel pasterkamp Omdat Jezus is opgestaan.m4a",
      "sermon_id": 91,
      "count": 78,
      "duration": 0
    },
    {
      "id": 89,
      "type": "file",
      "name": "preek 23-4-2017 Jan sjoerd pasterkamp Genade.m4a",
      "sermon_id": 92,
      "count": 148,
      "duration": 0
    },
    {
      "id": 90,
      "type": "file",
      "name": "preek 30-4-2017 Wim en Corrie kok profetie.m4a",
      "sermon_id": 93,
      "count": 123,
      "duration": 0
    },
    {
      "id": 91,
      "type": "file",
      "name": "preek 7-5-2017 daniel pasterkamp genade.m4a",
      "sermon_id": 94,
      "count": 99,
      "duration": 0
    },
    {
      "id": 92,
      "type": "file",
      "name": "preek 14-5-2017 David de Vos Moederdag.m4a",
      "sermon_id": 95,
      "count": 127,
      "duration": 0
    },
    {
      "id": 93,
      "type": "file",
      "name": "preek 21-5-2017 daniel Pasterkamp Wat is genade deel 2.m4a",
      "sermon_id": 96,
      "count": 76,
      "duration": 0
    },
    {
      "id": 94,
      "type": "file",
      "name": "preek 28-5-2017 Jan Pool Wat is mijn Indentiteit.m4a",
      "sermon_id": 97,
      "count": 202,
      "duration": 0
    },
    {
      "id": 95,
      "type": "file",
      "name": "preek 4-6-2017 daniel pasterkamp de geest van genade uigestort met pinkesteren.m4a",
      "sermon_id": 98,
      "count": 57,
      "duration": 0
    },
    {
      "id": 96,
      "type": "file",
      "name": "dienst 11-6-2017 - Martin Koornstra - Hemelse kracht die doorbreekt op aarde!.m4a",
      "sermon_id": 99,
      "count": 180,
      "duration": 0
    },
    {
      "id": 97,
      "type": "file",
      "name": "preek 18-6-2017 - daniel pasterkamp Weerstand tegen verleiding.m4a",
      "sermon_id": 100,
      "count": 65,
      "duration": 0
    }
  ]
}